367518 22672 443
950858 142393 525
766406 955719 525
275502 36603 443
166388 416091 449
498684 362196 449
567618 252911 470
828217 846965 525
373050 291200 441
515334 830210 509
959285 766651 525
512339 463027 470
497793 565853 470
162277 48300 383
360363 454502 449
860141 235084 525
65011 21433 340
596606 231026 470
21396 158110 383
461714 66687 449
85294 683913 509
562941 219594 470
594208 984198 525
378403 798041 509
56290 406741 443
940405 933373 507
966525 7648 525
592604 528263 452
3580 529698 470
915112 289713 525
972873 35142 525
965847 613694 525
213151 870652 525
655090 39105 509
116041 833848 509
510064 266010 449
102095 278572 443
187638 33444 383
452286 29561 449
232016 580259 470
974248 917777 507
191223 935979 525
713148 381614 509
361220 340229 441
425543 696581 509
387134 779360 509
948336 489434 525
144682 337902 443
293547 51665 443
867426 200746 525
782886 882061 525
407777 611705 470
885652 558252 525
312322 653280 509
257939 990144 525
800947 937333 525
546984 231121 470
711974 632635 504
748719 470122 509
357786 224328 443
813535 927194 525
201396 610260 470
505044 635529 509
999903 317594 525
919148 215364 525
791813 886025 525
289600 889952 525
902110 923171 476
496676 895967 525
794505 207138 509
994999 336097 525
761335 981542 525
350388 656345 509
580355 853500 525
305232 892617 525
532030 243281 470
723912 385695 509
988436 850240 507
700983 431033 509
923602 683131 525
593606 721840 509
748516 27470 509
242620 546353 470
474400 583546 470
214353 197715 373
154465 418830 449
506167 557154 470
839623 755845 525
423639 951980 525
737608 233612 509
970471 456605 525
523910 852945 525
568533 991749 525
799031 406407 509
341266 870427 525
573993 578431 390
892663 257204 525
440459 824026 509
460389 49187 449
447971 863164 525
709490 372560 509
301683 600860 470
983681 529968 525
197854 508778 449
363374 917459 525
269904 479462 449
137246 577651 470
821772 295237 509
82924 11941 351
128581 489949 449
472169 326082 449
715462 229526 509
686419 688111 398
656594 455209 509
97120 755641 509
533838 102017 470
7615 370795 443
97216 529853 470
131932 256485 443
425352 208553 449
567565 574369 377
142515 357576 443
397769 517299 470
226374 276964 443
498754 346350 449
871114 271323 525
657909 569145 509
612286 41641 470
34136 753026 509
559761 729229 509
152107 38308 375
569997 558639 421
662419 432055 509
638206 219755 509
710731 293540 509
589972 898149 525
396664 376640 436
707944 728370 411
132810 38834 354
418118 846450 525
294610 901031 525
674750 876607 525
20225 910764 525
614385 499131 470
220025 912165 525
492209 599440 470
285209 423175 449
817945 939943 525
195906 953472 525
38059 596432 470
795833 222416 509
68769 991190 525
833366 409551 509
678987 76585 509
821903 30792 509
475182 307938 449
395378 150410 443
224781 592783 470
763185 950005 525
789456 30368 509
248522 277712 407
950565 905595 507
245047 125121 443
749819 355594 509
366422 176355 443
731467 775599 468
917095 759655 525
427980 746656 509
509098 773521 509
528568 893658 525
790886 480794 509
664661 510714 509
589170 685647 509
152377 58167 375
561644 571338 421
435575 897425 525
300628 720315 509
915861 184771 525
940697 294966 525
806064 706272 468
470551 817467 509
785779 417608 509
462955 872591 525
474773 391420 449
622266 877493 525
679603 534447 509
471511 762420 509
204544 553868 470
69489 947591 525
464397 283529 449
552314 695281 509
260172 219427 443
197767 322178 443
704590 14931 509
594217 945561 525
565481 500960 470
69725 867823 525
468156 555182 470
378272 732803 509
930918 235171 525
732269 377944 509
138184 973922 525
166814 109643 383
354431 321648 441
905336 80604 525
248605 181086 443
428646 672218 509
846001 18874 525
531203 457100 470
943960 89499 525
962416 241957 525
340316 347669 441
208518 441976 449
640144 96917 509
214334 321016 443
522877 143902 470
198859 623225 470
967395 63797 525
700202 52991 509
668420 25267 509
767325 836528 468
435686 954532 525
844275 923534 476
809261 311009 509
20603 856947 525
749708 100567 509
536844 635432 509
944953 889220 507
481855 984219 525
502745 997661 525
773128 611568 509
761655 404974 509
926224 113145 525
501139 88701 449
757923 22174 509
701086 616861 509
891484 172433 525
299812 50798 443
196145 125183 383
619921 725995 509
564733 164778 470
269362 993374 525
81046 918350 525
202771 813170 509
619091 469651 470
97915 724341 509
941957 548947 525
679357 61967 509
991196 843075 507
61770 262925 443
