487247 930946 525
476170 537620 470
129985 943541 525
790370 949809 525
400513 598707 470
26029 920642 525
234839 921585 525
436998 813704 509
67172 125045 354
265278 594409 470
712409 856807 525
320150 321490 371
148759 361782 443
107616 714350 509
3539 318601 443
692556 738342 504
20739 958496 525
3681 958503 525
102831 597444 470
630007 759964 504
251605 427816 449
562485 767105 509
639449 996388 525
391817 618147 470
198832 855711 525
730039 919992 525
306548 772898 509
127897 709743 509
348864 573048 470
45967 461211 449
35209 151957 375
893783 952904 507
201183 404366 443
595564 970759 525
339033 727023 509
156034 511367 449
471238 673754 509
52025 493177 449
295896 751566 509
48969 891176 525
21004 395729 443
221335 383526 443
385540 703275 509
401351 586346 470
46864 739521 509
301604 881995 525
477521 932502 525
289513 660212 509
577988 820350 509
252990 873451 525
742699 860297 525
433238 811038 509
726470 812355 468
159085 367643 443
465300 911802 525
716170 851180 525
85402 817033 509
32718 942426 525
222765 496898 449
725297 978406 525
174756 965668 525
238427 753433 509
853832 963987 507
407126 993501 525
354824 996787 525
618480 629690 509
320549 908775 525
169915 306074 443
602071 835575 509
290135 930154 525
281966 888314 525
213455 439124 449
227109 536399 470
414944 626525 509
270007 509485 449
458125 693810 509
134171 261285 443
100966 883070 525
796461 930292 525
458352 954919 525
152546 819634 509
771591 904406 525
20250 374438 443
944340 970263 414
240325 469692 449
71051 803354 509
26158 547346 470
315063 400797 441
701148 884421 525
432673 481366 444
797842 932329 525
307779 611587 470
490597 715704 509
50725 331071 443
388128 841406 525
670417 708469 504
646824 794584 504
525513 893086 525
346674 570637 470
422720 795750 509
199254 734333 509
646105 648705 341
190319 274497 443
477515 488566 413
41889 892582 525
139553 375184 443
659204 782784 504
856610 975890 507
280315 974975 525
397730 656473 509
804553 985815 525
458201 921613 525
444595 524840 470
281675 485952 449
59722 444554 449
340161 664508 509
580442 849635 525
248271 737415 509
495133 516437 470
191191 757012 509
101029 317925 443
170649 845467 525
151220 788819 509
504977 830239 509
69439 808293 509
69248 696803 509
210468 257171 443
787153 980214 525
275573 463995 449
172549 756390 509
142303 218515 386
759496 956380 525
382777 668742 509
120873 943219 525
195310 750857 509
55290 344154 443
368507 546093 470
98347 783784 509
802166 875695 525
661159 803887 504
597485 834215 509
49734 599883 470
38642 807143 509
456151 737742 509
602063 845291 525
365606 852568 525
671238 700294 442
205883 830269 509
164133 202299 365
417015 440247 418
414186 500322 444
258439 534775 470
92404 178950 383
448229 610900 470
94461 963827 525
326526 811958 509
152071 882246 525
443141 744555 509
650298 970034 525
168494 677854 509
104661 747189 509
78743 442608 449
354924 500571 449
334233 398382 441
646741 892482 525
79770 962217 525
145685 591511 470
184344 740535 509
592033 857494 525
309641 670157 509
598146 890239 525
344536 855553 525
107703 384339 443
113985 257362 443
245148 767600 509
472580 556721 470
343303 578601 470
646753 655557 385
316626 842908 525
29784 375410 443
53483 418642 449
173492 885687 525
96231 306203 443
291964 930157 525
863526 985325 507
735458 993916 525
468008 652665 509
869024 934160 476
320603 892122 525
82341 533908 470
453362 672528 509
326891 956803 525
21590 548139 470
214514 655237 509
286995 332258 389
527977 944253 525
578883 982509 525
628651 884693 525
97745 112321 354
363844 515825 470
398818 450725 449
194277 758914 509
19705 691191 509
303963 307814 340
39659 934337 525
74409 709968 509
294234 943284 525
186978 213876 373
152428 327094 443
219751 578989 470
159167 561124 470
59409 405713 443
336434 499823 449
3543 738034 509
85396 532370 470
116616 538715 470
392874 646900 509
103501 116076 354
206725 581215 470
9599 232540 443
73414 867015 525
340332 359924 441
651085 874593 525
183946 804947 509
485775 898313 525
294581 908997 525
845973 934109 476
66707 448176 449
30214 264379 443
195445 698071 509
501165 721382 509
821291 826284 375
667980 700865 442
99639 228970 386
847545 882650 432
264825 919086 525
672992 853837 525
19084 220717 386
50584 989804 525
327329 378209 441
444659 752298 509
12999 935898 525
15642 983281 525
777515 981327 525
415837 609258 470
441940 520990 470
439893 921341 525
794695 897839 525
818619 978273 525
67680 885910 525
